iit\tn\JEEProjet\utils\HibernateUtil.class
iit\tn\JEEProjet\dao\TirageDao.class
iit\tn\JEEProjet\controller\HomeController.class
iit\tn\JEEProjet\models\User.class
iit\tn\JEEProjet\dao\UserDao.class
iit\tn\JEEProjet\HelloServlet.class
iit\tn\JEEProjet\controller\LoginController.class
iit\tn\JEEProjet\dao\MatiereDao.class
iit\tn\JEEProjet\models\Matiere.class
iit\tn\JEEProjet\models\Groupe.class
iit\tn\JEEProjet\models\Tirage.class
