E:\Cours2emeGLID\2emeGLIDS4\JEE\projetjee\src\main\java\iit\tn\JEEProjet\controller\LoginController.java
E:\Cours2emeGLID\2emeGLIDS4\JEE\projetjee\src\main\java\iit\tn\JEEProjet\dao\UserDao.java
E:\Cours2emeGLID\2emeGLIDS4\JEE\projetjee\src\main\java\iit\tn\JEEProjet\models\Tirage.java
E:\Cours2emeGLID\2emeGLIDS4\JEE\projetjee\src\main\java\iit\tn\JEEProjet\models\User.java
E:\Cours2emeGLID\2emeGLIDS4\JEE\projetjee\src\main\java\iit\tn\JEEProjet\utils\HibernateUtil.java
E:\Cours2emeGLID\2emeGLIDS4\JEE\projetjee\src\main\java\iit\tn\JEEProjet\dao\TirageDao.java
E:\Cours2emeGLID\2emeGLIDS4\JEE\projetjee\src\main\java\iit\tn\JEEProjet\controller\HomeController.java
E:\Cours2emeGLID\2emeGLIDS4\JEE\projetjee\src\main\java\iit\tn\JEEProjet\models\Matiere.java
E:\Cours2emeGLID\2emeGLIDS4\JEE\projetjee\src\main\java\iit\tn\JEEProjet\HelloServlet.java
E:\Cours2emeGLID\2emeGLIDS4\JEE\projetjee\src\main\java\iit\tn\JEEProjet\dao\MatiereDao.java
E:\Cours2emeGLID\2emeGLIDS4\JEE\projetjee\src\main\java\iit\tn\JEEProjet\models\Groupe.java
